%YAML 1.1
%TAG !u! tag:unity3d.com,2011:
--- !u!114 &11400000
MonoBehaviour:
  m_ObjectHideFlags: 0
  m_CorrespondingSourceObject: {fileID: 0}
  m_PrefabInstance: {fileID: 0}
  m_PrefabAsset: {fileID: 0}
  m_GameObject: {fileID: 0}
  m_Enabled: 1
  m_EditorHideFlags: 0
  m_Script: {fileID: 11500000, guid: de6866fd7b1b7eb4680c6bb2a035eec8, type: 3}
  m_Name: AlignmentBehaviour
  m_EditorClassIdentifier: 
  _filter: {fileID: 11400000, guid: 3b994f78bc7fef84c8283db93db3a5dd, type: 2}
